^C:\USERS\KURONEKO\DESKTOP\ASDASCASD\PROJECT1\PROJECT1\SOURCE.CPP
/c /IC:\USERS\KURONEKO\DESKTOP\ASDASCASD\PROJECT1\\HIGHSCORELIB\INCLUDE /ZI /nologo /W3 /WX- /sdl /Od /Oy- /D _MBCS /Gm /EHsc /RTC1 /MDd /GS /fp:precise /Zc:wchar_t /Zc:forScope /Zc:inline /Fo"DEBUG\\" /Fd"DEBUG\VC140.PDB" /Gd /TP /analyze- C:\USERS\KURONEKO\DESKTOP\ASDASCASD\PROJECT1\PROJECT1\SOURCE.CPP
^C:\USERS\KURONEKO\DESKTOP\ASDASCASD\PROJECT1\HIGHSCORELIB\INCLUDE\SCORE.CPP
/c /IC:\USERS\KURONEKO\DESKTOP\ASDASCASD\PROJECT1\\HIGHSCORELIB\INCLUDE /ZI /nologo /W3 /WX- /sdl /Od /Oy- /D _MBCS /Gm /EHsc /RTC1 /MDd /GS /fp:precise /Zc:wchar_t /Zc:forScope /Zc:inline /Fo"DEBUG\\" /Fd"DEBUG\VC140.PDB" /Gd /TP /analyze- C:\USERS\KURONEKO\DESKTOP\ASDASCASD\PROJECT1\HIGHSCORELIB\INCLUDE\SCORE.CPP
